module lelux.net/lage

go 1.16

require (
	github.com/mitchellh/mapstructure v1.4.2
	github.com/stretchr/testify v1.7.0
	gopkg.in/yaml.v3 v3.0.0-20210107192922-496545a6307b
)

require github.com/davecgh/go-spew v1.1.1 // indirect
